%YAML 1.1
%TAG !u! tag:unity3d.com,2011:
--- !u!114 &11400000
MonoBehaviour:
  m_ObjectHideFlags: 0
  m_PrefabParentObject: {fileID: 0}
  m_PrefabInternal: {fileID: 0}
  m_GameObject: {fileID: 0}
  m_Enabled: 1
  m_EditorHideFlags: 0
  m_Script: {fileID: 11500000, guid: e2430a4fdcf4c944b85e42c7cf94a600, type: 3}
  m_Name: Dragon
  m_EditorClassIdentifier: 
  m_maxHorizontalSpeed: 2
  m_acceleration: 10
  m_airAcceleration: 1
  m_jumpVelocity: 3
  m_prefab: {fileID: 125438, guid: 97cc0f14060e3884fa31ee54dff2ee4a, type: 2}
  m_color: {r: 1, g: .323529422, b: .323529422, a: 1}
  m_spawnAudio: {fileID: 8300000, guid: eac9bbaf1e4a7724f91953b7693e1e17, type: 3}
  m_jumpAudio: {fileID: 0}
