%YAML 1.1
%TAG !u! tag:unity3d.com,2011:
--- !u!114 &11400000
MonoBehaviour:
  m_ObjectHideFlags: 0
  m_PrefabParentObject: {fileID: 0}
  m_PrefabInternal: {fileID: 0}
  m_GameObject: {fileID: 0}
  m_Enabled: 1
  m_EditorHideFlags: 0
  m_Script: {fileID: 11500000, guid: 37fa825ab68e21c4cab85cedec6773f8, type: 3}
  m_Name: CameraSettings
  m_EditorClassIdentifier: 
  m_offset: {x: 0, y: 1.5, z: -4}
  m_linearSpeed: .200000003
  m_relativeSpeed: 5
