%YAML 1.1
%TAG !u! tag:unity3d.com,2011:
--- !u!114 &11400000
MonoBehaviour:
  m_ObjectHideFlags: 0
  m_PrefabParentObject: {fileID: 0}
  m_PrefabInternal: {fileID: 0}
  m_GameObject: {fileID: 0}
  m_Enabled: 1
  m_EditorHideFlags: 0
  m_Script: {fileID: 11500000, guid: 27c64ddbe1e41ad4ea27cb38dae6ab86, type: 3}
  m_Name: CharacterSettings
  m_EditorClassIdentifier: 
  m_wallLayerMask:
    serializedVersion: 2
    m_Bits: 2560
  m_killLayerMask:
    serializedVersion: 2
    m_Bits: 32768
  m_characters:
  - {fileID: 11400000, guid: 0b444dd35fc68df4c995579054633063, type: 2}
  - {fileID: 11400000, guid: 38d425f38a239db4fa340ce52aea0afa, type: 2}
  - {fileID: 11400000, guid: 5de38e5e3d1f0f74b864a43277a59db1, type: 2}
  - {fileID: 11400000, guid: 52ecfa73d9491bd46b126bee619db322, type: 2}
